PROMSACE seguimiento de encuestas
…
Marzo antes del covid

df_marzo_nocovid <- df_marzo %>%
                    filter(Fecha <= "2020-03-17")
df_marzo_nocovid                    

## # A tibble: 51 x 7
##    Fecha               Dia   Mes   `Dia de la Semana` Tipo    Recuento Acumulado
##    <dttm>              <fct> <fct> <fct>              <fct>      <dbl>     <dbl>
##  1 2020-03-01 00:00:00 1     Marzo domingo            Recopi~       16       182
##  2 2020-03-02 00:00:00 2     Marzo lunes              Recopi~      143       325
##  3 2020-03-03 00:00:00 3     Marzo martes             Recopi~      149       474
##  4 2020-03-04 00:00:00 4     Marzo miercoles          Recopi~       68       542
##  5 2020-03-05 00:00:00 5     Marzo jueves             Recopi~       44       586
##  6 2020-03-06 00:00:00 6     Marzo viernes            Recopi~       90       676
##  7 2020-03-07 00:00:00 7     Marzo sabado             Recopi~       13       689
##  8 2020-03-08 00:00:00 8     Marzo domingo            Recopi~        8       697
##  9 2020-03-09 00:00:00 9     Marzo lunes              Recopi~      222       919
## 10 2020-03-10 00:00:00 10    Marzo martes             Recopi~      228      1147
## # ... with 41 more rows
…
Marzo despues del covid

df_marzo_sicovid <- df_marzo %>%
                    filter(Fecha > "2020-03-17")
df_marzo_sicovid                    

## # A tibble: 42 x 7
##    Fecha               Dia   Mes   `Dia de la Semana` Tipo    Recuento Acumulado
##    <dttm>              <fct> <fct> <fct>              <fct>      <dbl>     <dbl>
##  1 2020-03-18 00:00:00 18    Marzo miercoles          Recopi~        2      1979
##  2 2020-03-19 00:00:00 19    Marzo jueves             Recopi~        5      1984
##  3 2020-03-20 00:00:00 20    Marzo viernes            Recopi~        5      1989
##  4 2020-03-21 00:00:00 21    Marzo sabado             Recopi~        0      1989
##  5 2020-03-22 00:00:00 22    Marzo domingo            Recopi~        1      1990
##  6 2020-03-23 00:00:00 23    Marzo lunes              Recopi~        2      1992
##  7 2020-03-24 00:00:00 24    Marzo martes             Recopi~        0      1992
##  8 2020-03-25 00:00:00 25    Marzo miercoles          Recopi~        0      1992
##  9 2020-03-26 00:00:00 26    Marzo jueves             Recopi~        1      1993
## 10 2020-03-27 00:00:00 27    Marzo viernes            Recopi~        0      1993
## # ... with 32 more rows
…
df_nocovid <- df %>%
                filter(Fecha <= "2020-03-17")
df_nocovid

## # A tibble: 57 x 7
##    Fecha               Dia   Mes    `Dia de la Seman~ Tipo    Recuento Acumulado
##    <dttm>              <fct> <fct>  <fct>             <fct>      <dbl>     <dbl>
##  1 2020-02-28 00:00:00 28    Febre~ viernes           Recopi~      142       142
##  2 2020-02-29 00:00:00 29    Febre~ sabado            Recopi~       24       166
##  3 2020-03-01 00:00:00 1     Marzo  domingo           Recopi~       16       182
##  4 2020-03-02 00:00:00 2     Marzo  lunes             Recopi~      143       325
##  5 2020-03-03 00:00:00 3     Marzo  martes            Recopi~      149       474
##  6 2020-03-04 00:00:00 4     Marzo  miercoles         Recopi~       68       542
##  7 2020-03-05 00:00:00 5     Marzo  jueves            Recopi~       44       586
##  8 2020-03-06 00:00:00 6     Marzo  viernes           Recopi~       90       676
##  9 2020-03-07 00:00:00 7     Marzo  sabado            Recopi~       13       689
## 10 2020-03-08 00:00:00 8     Marzo  domingo           Recopi~        8       697
## # ... with 47 more rows
…
Despues del covid

df2_sicovid <- df2 %>%
                filter(Fecha > "2020-03-17")
df2_sicovid

## # A tibble: 105 x 12
##    Fecha               Dia   Mes   `Recuento Recop~ `Acumulado Reco~
##    <dttm>              <fct> <chr>            <dbl>            <dbl>
##  1 2020-03-18 00:00:00 18    3                    2             1979
##  2 2020-03-19 00:00:00 19    3                    5             1984
##  3 2020-03-20 00:00:00 20    3                    5             1989
##  4 2020-03-21 00:00:00 21    3                    0             1989
##  5 2020-03-22 00:00:00 22    3                    1             1990
##  6 2020-03-23 00:00:00 23    3                    2             1992
##  7 2020-03-24 00:00:00 24    3                    0             1992
##  8 2020-03-25 00:00:00 25    3                    0             1992
##  9 2020-03-26 00:00:00 26    3                    1             1993
## 10 2020-03-27 00:00:00 27    3                    0             1993
## # ... with 95 more rows, and 7 more variables: `Recuento Completas` <dbl>,
## #   `Acumulado Completas` <dbl>, `Recuento Completas y Efectivas` <dbl>,
## #   `Acumulado Completas y Efectivas` <dbl>, `dia de la semana` <chr>,
## #   dia_letras <fct>, Mes_letras <fct>

df_sicovid <- df %>%
                filter(Fecha > "2020-03-17")
df_sicovid

## # A tibble: 315 x 7
##    Fecha               Dia   Mes   `Dia de la Semana` Tipo    Recuento Acumulado
##    <dttm>              <fct> <fct> <fct>              <fct>      <dbl>     <dbl>
##  1 2020-03-18 00:00:00 18    Marzo miercoles          Recopi~        2      1979
##  2 2020-03-19 00:00:00 19    Marzo jueves             Recopi~        5      1984
##  3 2020-03-20 00:00:00 20    Marzo viernes            Recopi~        5      1989
##  4 2020-03-21 00:00:00 21    Marzo sabado             Recopi~        0      1989
##  5 2020-03-22 00:00:00 22    Marzo domingo            Recopi~        1      1990
##  6 2020-03-23 00:00:00 23    Marzo lunes              Recopi~        2      1992
##  7 2020-03-24 00:00:00 24    Marzo martes             Recopi~        0      1992
##  8 2020-03-25 00:00:00 25    Marzo miercoles          Recopi~        0      1992
##  9 2020-03-26 00:00:00 26    Marzo jueves             Recopi~        1      1993
## 10 2020-03-27 00:00:00 27    Marzo viernes            Recopi~        0      1993
## # ... with 305 more rows
…
